<svg width="519" height="426" viewBox="0 0 519 426" fill="none" xmlns="http://www.w3.org/2000/svg">
<g id="Svg work">
<path id="Oval" d="M263.255 426C383.415 426 480.824 422.861 480.824 418.988C480.824 415.115 383.415 411.976 263.255 411.976C143.096 411.976 45.687 415.115 45.687 418.988C45.687 422.861 143.096 426 263.255 426Z" fill="#F2E4E2"/>
<g id="Group">
<path id="Path" d="M2.61106 128.814C-6.84817 179.83 8.03322 250.351 69.7248 265.548C132.102 280.913 197.452 250.267 250.509 310.765C339.942 412.742 509.29 404.053 518.081 285.546C525.801 181.48 415.893 133.648 326.93 159.038C276.432 173.451 217.007 74.1566 154.263 48.8404C91.5184 23.5243 13.5263 69.9465 2.61106 128.814Z" fill="#F2F4F7"/>
<path id="Oval_2" d="M312.255 144.603C336.429 144.603 356.027 125.006 356.027 100.831C356.027 76.6565 336.429 57.059 312.255 57.059C288.08 57.059 268.483 76.6565 268.483 100.831C268.483 125.006 288.08 144.603 312.255 144.603Z" fill="#F2F4F7"/>
<g id="Group_2">
<g id="Group_3">
<path id="Path_2" d="M161.073 361.312C165.612 346.583 182.922 357.053 191.275 354.95C191.28 354.952 191.281 354.947 191.281 354.947C192.598 354.617 193.69 353.969 194.475 352.863C200.24 344.743 196.594 335.542 196.594 335.542C196.594 335.542 195.976 337.72 192.401 339.197C188.826 340.674 181.269 330.136 166.427 335.614C151.585 341.092 161.073 361.312 161.073 361.312Z" fill="#57CE87"/>
<path id="Path_3" d="M161.073 361.312C165.612 346.583 182.922 357.053 191.275 354.95C191.28 354.952 191.282 354.947 191.282 354.947C195.964 351.088 195.602 340.753 195.602 340.753C195.602 340.753 194.596 342.682 192.686 343.89C190.77 345.101 177.895 338.126 169.097 341.814C160.301 345.497 161.073 361.312 161.073 361.312Z" fill="#299655"/>
<path id="Path_4" d="M178.24 340.925C175.744 340.016 172.903 339.851 170.231 340.631C168.891 341.004 167.624 341.668 166.505 342.52C165.387 343.379 164.453 344.456 163.692 345.62C162.201 347.978 161.377 350.653 161.032 353.32C160.674 355.992 160.712 358.68 161.072 361.312C161.377 358.671 161.69 356.067 162.259 353.542C162.403 352.912 162.589 352.296 162.739 351.672C162.95 351.068 163.104 350.443 163.358 349.861C163.779 348.659 164.361 347.536 165.032 346.488C166.346 344.372 168.297 342.713 170.632 341.807C172.97 340.894 175.605 340.663 178.24 340.925Z" fill="#196D3B"/>
<path id="Oval_3" d="M170.814 350.786C171.857 350.786 172.702 349.941 172.702 348.898C172.702 347.856 171.857 347.01 170.814 347.01C169.771 347.01 168.926 347.856 168.926 348.898C168.926 349.941 169.771 350.786 170.814 350.786Z" fill="#196D3B"/>
<path id="Oval_4" d="M177.79 346.04C178.404 346.04 178.902 345.542 178.902 344.928C178.902 344.315 178.404 343.817 177.79 343.817C177.177 343.817 176.679 344.315 176.679 344.928C176.679 345.542 177.177 346.04 177.79 346.04Z" fill="#196D3B"/>
<path id="Oval_5" d="M163.723 342.271C164.461 342.271 165.058 341.674 165.058 340.937C165.058 340.199 164.461 339.602 163.723 339.602C162.986 339.602 162.388 340.199 162.388 340.937C162.388 341.674 162.986 342.271 163.723 342.271Z" fill="#299655"/>
<path id="Oval_6" d="M186.625 341.884C187.238 341.884 187.736 341.387 187.736 340.773C187.736 340.159 187.238 339.662 186.625 339.662C186.011 339.662 185.513 340.159 185.513 340.773C185.513 341.387 186.011 341.884 186.625 341.884Z" fill="#196D3B"/>
<path id="Oval_7" d="M183.9 350.064C184.943 350.064 185.788 349.219 185.788 348.176C185.788 347.134 184.943 346.288 183.9 346.288C182.857 346.288 182.012 347.134 182.012 348.176C182.012 349.219 182.857 350.064 183.9 350.064Z" fill="#196D3B"/>
<path id="Oval_8" d="M176.356 338.961C177.107 338.961 177.716 338.352 177.716 337.601C177.716 336.85 177.107 336.241 176.356 336.241C175.605 336.241 174.996 336.85 174.996 337.601C174.996 338.352 175.605 338.961 176.356 338.961Z" fill="#299655"/>
</g>
<g id="Group_4">
<path id="Path_5" d="M163.822 361.312C159.283 346.583 141.974 357.053 133.62 354.95C133.615 354.952 133.614 354.947 133.614 354.947C132.297 354.617 131.205 353.969 130.42 352.863C124.656 344.743 128.301 335.542 128.301 335.542C128.301 335.542 128.919 337.72 132.494 339.197C136.069 340.674 143.626 330.136 158.468 335.614C173.31 341.092 163.822 361.312 163.822 361.312Z" fill="#57CE87"/>
<path id="Path_6" d="M163.822 361.312C159.283 346.583 141.974 357.053 133.62 354.95C133.615 354.952 133.614 354.947 133.614 354.947C128.931 351.088 129.293 340.753 129.293 340.753C129.293 340.753 130.3 342.682 132.209 343.89C134.125 345.101 147 338.126 155.798 341.814C164.594 345.497 163.822 361.312 163.822 361.312Z" fill="#299655"/>
<path id="Path_7" d="M146.654 340.925C149.15 340.016 151.992 339.851 154.664 340.631C156.004 341.004 157.27 341.668 158.39 342.52C159.507 343.379 160.442 344.456 161.203 345.62C162.694 347.978 163.517 350.653 163.862 353.32C164.22 355.992 164.183 358.68 163.822 361.312C163.518 358.671 163.204 356.067 162.636 353.542C162.492 352.912 162.305 352.296 162.155 351.672C161.944 351.068 161.79 350.443 161.536 349.861C161.115 348.659 160.533 347.536 159.862 346.488C158.548 344.372 156.598 342.713 154.262 341.807C151.926 340.894 149.29 340.663 146.654 340.925Z" fill="#196D3B"/>
<path id="Oval_9" d="M154.081 350.786C155.123 350.786 155.969 349.941 155.969 348.898C155.969 347.856 155.123 347.01 154.081 347.01C153.038 347.01 152.192 347.856 152.192 348.898C152.192 349.941 153.038 350.786 154.081 350.786Z" fill="#196D3B"/>
<path id="Oval_10" d="M147.104 346.04C147.718 346.04 148.216 345.542 148.216 344.928C148.216 344.315 147.718 343.817 147.104 343.817C146.491 343.817 145.993 344.315 145.993 344.928C145.993 345.542 146.491 346.04 147.104 346.04Z" fill="#196D3B"/>
<path id="Oval_11" d="M161.171 342.271C161.909 342.271 162.506 341.674 162.506 340.937C162.506 340.199 161.909 339.602 161.171 339.602C160.434 339.602 159.836 340.199 159.836 340.937C159.836 341.674 160.434 342.271 161.171 342.271Z" fill="#299655"/>
<path id="Oval_12" d="M138.27 341.884C138.884 341.884 139.381 341.387 139.381 340.773C139.381 340.159 138.884 339.662 138.27 339.662C137.656 339.662 137.159 340.159 137.159 340.773C137.159 341.387 137.656 341.884 138.27 341.884Z" fill="#196D3B"/>
<path id="Oval_13" d="M140.995 350.064C142.037 350.064 142.883 349.219 142.883 348.176C142.883 347.134 142.037 346.288 140.995 346.288C139.952 346.288 139.107 347.134 139.107 348.176C139.107 349.219 139.952 350.064 140.995 350.064Z" fill="#196D3B"/>
<path id="Oval_14" d="M148.539 338.961C149.29 338.961 149.899 338.352 149.899 337.601C149.899 336.85 149.29 336.241 148.539 336.241C147.788 336.241 147.179 336.85 147.179 337.601C147.179 338.352 147.788 338.961 148.539 338.961Z" fill="#299655"/>
</g>
<path id="Path_8" d="M142.119 381.075H184.349L177.075 421.006H149.773L142.119 381.075Z" fill="#ED8A74"/>
<path id="Path_9" d="M184.349 381.075L150.603 392.107L149.773 421.006L142.119 381.075H184.349Z" fill="#CE5B49"/>
<g id="Group_5">
<path id="Path_10" d="M134.125 366.682C155.209 367.109 147.892 391.184 153.781 400.392C153.781 400.398 153.788 400.398 153.788 400.398C154.713 401.85 155.974 402.929 157.723 403.487C170.565 407.595 181.314 400.168 181.314 400.168C181.314 400.168 178.217 400.168 174.937 396.422C171.658 392.676 182.706 380.155 169.952 364.382C157.198 348.609 134.125 366.682 134.125 366.682Z" fill="#57CE87"/>
<path id="Path_11" d="M134.125 366.682C155.209 367.109 147.892 391.184 153.781 400.392C153.781 400.398 153.788 400.398 153.788 400.398C160.617 404.657 174.085 400.746 174.085 400.746C174.085 400.746 171.169 400.201 168.866 398.341C166.556 396.475 170.929 378.841 162.788 369.64C154.655 360.439 134.125 366.682 134.125 366.682Z" fill="#299655"/>
<path id="Path_12" d="M167.373 380.194C167.637 376.925 166.793 373.497 164.768 370.588C163.777 369.123 162.429 367.843 160.891 366.801C159.342 365.764 157.576 365.017 155.76 364.506C152.099 363.53 148.27 363.454 144.631 363.943C140.98 364.418 137.455 365.368 134.125 366.683C137.715 366.155 141.26 365.649 144.796 365.474C145.679 365.433 146.56 365.446 147.438 365.414C148.311 365.461 149.192 365.433 150.053 365.539C151.791 365.633 153.487 365.946 155.117 366.39C158.394 367.237 161.306 368.993 163.371 371.461C165.446 373.927 166.734 376.978 167.373 380.194Z" fill="#196D3B"/>
<path id="Oval_15" d="M154.105 376.394C155.531 376.394 156.688 375.351 156.688 374.064C156.688 372.778 155.531 371.735 154.105 371.735C152.678 371.735 151.521 372.778 151.521 374.064C151.521 375.351 152.678 376.394 154.105 376.394Z" fill="#196D3B"/>
<path id="Oval_16" d="M161.936 382.38C162.776 382.38 163.457 381.766 163.457 381.009C163.457 380.252 162.776 379.638 161.936 379.638C161.096 379.638 160.416 380.252 160.416 381.009C160.416 381.766 161.096 382.38 161.936 382.38Z" fill="#196D3B"/>
<path id="Oval_17" d="M161.936 364.613C162.945 364.613 163.762 363.875 163.762 362.966C163.762 362.056 162.945 361.319 161.936 361.319C160.927 361.319 160.11 362.056 160.11 362.966C160.11 363.875 160.927 364.613 161.936 364.613Z" fill="#299655"/>
<path id="Oval_18" d="M170.705 391.468C171.545 391.468 172.225 390.854 172.225 390.096C172.225 389.339 171.545 388.725 170.705 388.725C169.865 388.725 169.185 389.339 169.185 390.096C169.185 390.854 169.865 391.468 170.705 391.468Z" fill="#196D3B"/>
<path id="Oval_19" d="M159.943 391.685C161.369 391.685 162.526 390.642 162.526 389.355C162.526 388.069 161.369 387.026 159.943 387.026C158.516 387.026 157.359 388.069 157.359 389.355C157.359 390.642 158.516 391.685 159.943 391.685Z" fill="#196D3B"/>
<path id="Oval_20" d="M171.046 378.516C172.073 378.516 172.907 377.765 172.907 376.838C172.907 375.911 172.073 375.16 171.046 375.16C170.018 375.16 169.185 375.911 169.185 376.838C169.185 377.765 170.018 378.516 171.046 378.516Z" fill="#299655"/>
</g>
<g id="Group_6">
<path id="Path_13" d="M166.837 356.391C144.693 356.888 152.378 384.927 146.193 395.651C146.193 395.659 146.185 395.659 146.185 395.659C145.213 397.35 143.889 398.606 142.052 399.256C128.565 404.04 117.274 395.391 117.274 395.391C117.274 395.391 120.528 395.391 123.972 391.028C127.417 386.664 115.812 372.083 129.208 353.712C142.603 335.341 166.837 356.391 166.837 356.391Z" fill="#57CE87"/>
<path id="Path_14" d="M166.837 356.391C144.693 356.888 152.378 384.927 146.193 395.651C146.193 395.659 146.185 395.659 146.185 395.659C139.013 400.619 124.868 396.065 124.868 396.065C124.868 396.065 127.93 395.429 130.348 393.263C132.775 391.089 128.182 370.552 136.732 359.836C145.274 349.119 166.837 356.391 166.837 356.391Z" fill="#299655"/>
<path id="Path_15" d="M131.916 372.128C131.639 368.32 132.525 364.327 134.652 360.94C135.693 359.233 137.108 357.742 138.724 356.529C140.351 355.321 142.206 354.452 144.113 353.856C147.959 352.72 151.979 352.63 155.802 353.2C159.638 353.754 163.339 354.86 166.836 356.391C163.066 355.776 159.343 355.187 155.629 354.983C154.701 354.935 153.775 354.95 152.854 354.913C151.937 354.968 151.012 354.936 150.107 355.059C148.281 355.169 146.5 355.533 144.789 356.049C141.347 357.035 138.288 359.081 136.12 361.955C133.94 364.828 132.588 368.381 131.916 372.128Z" fill="#196D3B"/>
<path id="Oval_21" d="M145.852 367.702C147.351 367.702 148.565 366.487 148.565 364.989C148.565 363.49 147.351 362.275 145.852 362.275C144.354 362.275 143.139 363.49 143.139 364.989C143.139 366.487 144.354 367.702 145.852 367.702Z" fill="#196D3B"/>
<path id="Oval_22" d="M137.627 374.674C138.509 374.674 139.224 373.959 139.224 373.076C139.224 372.194 138.509 371.479 137.627 371.479C136.745 371.479 136.03 372.194 136.03 373.076C136.03 373.959 136.745 374.674 137.627 374.674Z" fill="#196D3B"/>
<path id="Oval_23" d="M137.627 353.98C138.687 353.98 139.546 353.122 139.546 352.062C139.546 351.002 138.687 350.144 137.627 350.144C136.568 350.144 135.709 351.002 135.709 352.062C135.709 353.122 136.568 353.98 137.627 353.98Z" fill="#299655"/>
<path id="Oval_24" d="M128.416 385.257C129.299 385.257 130.014 384.542 130.014 383.66C130.014 382.778 129.299 382.063 128.416 382.063C127.534 382.063 126.819 382.778 126.819 383.66C126.819 384.542 127.534 385.257 128.416 385.257Z" fill="#196D3B"/>
<path id="Oval_25" d="M139.721 385.51C141.219 385.51 142.434 384.296 142.434 382.797C142.434 381.299 141.219 380.084 139.721 380.084C138.223 380.084 137.008 381.299 137.008 382.797C137.008 384.296 138.223 385.51 139.721 385.51Z" fill="#196D3B"/>
<path id="Oval_26" d="M128.059 370.173C129.139 370.173 130.014 369.298 130.014 368.218C130.014 367.139 129.139 366.264 128.059 366.264C126.98 366.264 126.105 367.139 126.105 368.218C126.105 369.298 126.98 370.173 128.059 370.173Z" fill="#299655"/>
</g>
<g id="Group_7">
<path id="Path_16" d="M156.923 359.785C179.068 360.283 171.383 388.321 177.568 399.046C177.568 399.053 177.575 399.053 177.575 399.053C178.548 400.745 179.872 402 181.709 402.651C195.196 407.435 206.486 398.786 206.486 398.786C206.486 398.786 203.233 398.786 199.789 394.422C196.344 390.059 207.948 375.477 194.553 357.106C181.157 338.735 156.923 359.785 156.923 359.785Z" fill="#57CE87"/>
<path id="Path_17" d="M156.923 359.785C179.068 360.283 171.383 388.321 177.568 399.046C177.568 399.053 177.575 399.053 177.575 399.053C184.748 404.014 198.893 399.459 198.893 399.459C198.893 399.459 195.831 398.824 193.413 396.658C190.986 394.484 195.579 373.947 187.029 363.231C178.486 352.514 156.923 359.785 156.923 359.785Z" fill="#299655"/>
<path id="Path_18" d="M191.845 375.522C192.122 371.715 191.235 367.721 189.109 364.334C188.067 362.628 186.652 361.137 185.036 359.924C183.41 358.716 181.554 357.846 179.648 357.251C175.801 356.114 171.781 356.025 167.958 356.594C164.123 357.148 160.422 358.254 156.924 359.785C160.695 359.17 164.418 358.582 168.131 358.378C169.059 358.329 169.985 358.345 170.906 358.308C171.823 358.363 172.748 358.33 173.653 358.453C175.479 358.563 177.261 358.928 178.972 359.444C182.413 360.43 185.472 362.476 187.641 365.35C189.82 368.223 191.173 371.776 191.845 375.522Z" fill="#196D3B"/>
<path id="Oval_27" d="M177.908 371.096C179.407 371.096 180.621 369.882 180.621 368.383C180.621 366.885 179.407 365.67 177.908 365.67C176.41 365.67 175.195 366.885 175.195 368.383C175.195 369.882 176.41 371.096 177.908 371.096Z" fill="#196D3B"/>
<path id="Oval_28" d="M186.134 378.068C187.016 378.068 187.731 377.353 187.731 376.471C187.731 375.589 187.016 374.874 186.134 374.874C185.251 374.874 184.536 375.589 184.536 376.471C184.536 377.353 185.251 378.068 186.134 378.068Z" fill="#196D3B"/>
<path id="Oval_29" d="M186.134 357.375C187.193 357.375 188.052 356.516 188.052 355.457C188.052 354.397 187.193 353.538 186.134 353.538C185.074 353.538 184.215 354.397 184.215 355.457C184.215 356.516 185.074 357.375 186.134 357.375Z" fill="#299655"/>
<path id="Oval_30" d="M195.344 388.652C196.226 388.652 196.941 387.937 196.941 387.055C196.941 386.173 196.226 385.458 195.344 385.458C194.462 385.458 193.747 386.173 193.747 387.055C193.747 387.937 194.462 388.652 195.344 388.652Z" fill="#196D3B"/>
<path id="Oval_31" d="M184.04 388.905C185.538 388.905 186.753 387.69 186.753 386.192C186.753 384.693 185.538 383.479 184.04 383.479C182.541 383.479 181.327 384.693 181.327 386.192C181.327 387.69 182.541 388.905 184.04 388.905Z" fill="#196D3B"/>
<path id="Oval_32" d="M195.701 373.567C196.781 373.567 197.656 372.692 197.656 371.613C197.656 370.534 196.781 369.659 195.701 369.659C194.622 369.659 193.747 370.534 193.747 371.613C193.747 372.692 194.622 373.567 195.701 373.567Z" fill="#299655"/>
</g>
</g>
</g>
<path id="Oval_33" d="M156.814 73.0324C173.098 73.0324 186.3 59.8312 186.3 43.5467C186.3 27.2621 173.098 14.0609 156.814 14.0609C140.529 14.0609 127.328 27.2621 127.328 43.5467C127.328 59.8312 140.529 73.0324 156.814 73.0324Z" fill="#81A2C9"/>
<path id="Oval_34" d="M156.814 70.2516C171.563 70.2516 183.519 58.2954 183.519 43.5467C183.519 28.7979 171.563 16.8417 156.814 16.8417C142.065 16.8417 130.109 28.7979 130.109 43.5467C130.109 58.2954 142.065 70.2516 156.814 70.2516Z" fill="#D3DDEF"/>
<path id="Shape" fill-rule="evenodd" clip-rule="evenodd" d="M221.469 107.316V0H412.12V107.316H221.469ZM224.66 103.918H408.499V3.39879H224.66V103.918Z" fill="#81A2C9"/>
<rect id="Rectangle" x="224.66" y="3.3988" width="183.839" height="100.519" fill="white"/>
<rect id="Rectangle_2" x="229.636" y="7.27939" width="77.6935" height="92.145" fill="#D3DDEF"/>
<rect id="Rectangle_3" x="312.238" y="48.9964" width="91.17" height="50.428" fill="#D3DDEF"/>
<rect id="Rectangle_4" x="312.238" y="7.27939" width="91.17" height="36.2673" fill="#D3DDEF"/>
<rect id="Rectangle_5" x="236.142" y="14.7424" width="13.9693" height="16.6484" fill="white"/>
<rect id="Rectangle_6" x="238.869" y="21.0578" width="8.51588" height="0.57429" fill="#DD842A"/>
<rect id="Rectangle_7" x="238.869" y="24.3107" width="8.51588" height="0.57429" fill="#DD842A"/>
<rect id="Rectangle_8" x="260.254" y="31.3913" width="13.9693" height="16.6484" fill="white"/>
<rect id="Rectangle_9" x="262.981" y="37.7062" width="8.51588" height="0.57429" fill="#294473"/>
<rect id="Rectangle_10" x="262.981" y="40.9591" width="8.51588" height="0.57429" fill="#294473"/>
<rect id="Rectangle_11" x="245.264" y="59.0111" width="13.9693" height="16.6484" fill="white"/>
<rect id="Rectangle_12" x="247.991" y="65.3264" width="8.51588" height="0.57429" fill="#57CE87"/>
<rect id="Rectangle_13" x="247.991" y="68.5794" width="8.51588" height="0.57429" fill="#57CE87"/>
<rect id="Rectangle_14" x="284.812" y="49.2518" width="13.9693" height="16.6484" fill="white"/>
<rect id="Rectangle_15" x="287.539" y="55.5667" width="8.51588" height="0.57429" fill="#DD842A"/>
<rect id="Rectangle_16" x="287.539" y="58.8196" width="8.51588" height="0.57429" fill="#DD842A"/>
<rect id="Rectangle_17" x="269.439" y="75.66" width="13.9693" height="16.6484" fill="white"/>
<rect id="Rectangle_18" x="272.166" y="81.9749" width="8.51588" height="0.57429" fill="#57CE87"/>
<rect id="Rectangle_19" x="272.166" y="85.2278" width="8.51588" height="0.57429" fill="#57CE87"/>
<rect id="Rectangle_20" x="283.409" y="16.2734" width="13.9693" height="16.6484" fill="white"/>
<rect id="Rectangle_21" x="286.135" y="22.5883" width="8.51588" height="0.57429" fill="#294473"/>
<rect id="Rectangle_22" x="286.135" y="25.8417" width="8.51588" height="0.57429" fill="#294473"/>
<rect id="Rectangle_23" x="321.203" y="13.3076" width="13.9693" height="16.6484" fill="white"/>
<rect id="Rectangle_24" x="323.93" y="19.6225" width="8.51588" height="0.57429" fill="#DD842A"/>
<rect id="Rectangle_25" x="323.93" y="22.8754" width="8.51588" height="0.57429" fill="#DD842A"/>
<rect id="Rectangle_26" x="358.583" y="20.1963" width="13.9693" height="16.6484" fill="white"/>
<rect id="Rectangle_27" x="361.31" y="26.5112" width="8.51588" height="0.57429" fill="#294473"/>
<rect id="Rectangle_28" x="361.31" y="29.7646" width="8.51588" height="0.57429" fill="#294473"/>
<rect id="Rectangle_29" x="378.605" y="57.002" width="13.9693" height="16.6484" fill="white"/>
<rect id="Rectangle_30" x="381.332" y="63.3169" width="8.51588" height="0.57429" fill="#294473"/>
<rect id="Rectangle_31" x="381.332" y="66.5703" width="8.51588" height="0.57429" fill="#294473"/>
<rect id="Rectangle_32" x="331.222" y="60.2549" width="13.9693" height="16.6484" fill="white"/>
<rect id="Rectangle_33" x="333.949" y="66.5703" width="8.51588" height="0.57429" fill="#57CE87"/>
<rect id="Rectangle_34" x="333.949" y="69.8232" width="8.51588" height="0.57429" fill="#57CE87"/>
<path id="Path_19" d="M167.308 53.2875L156.698 45.1835V26.1436H158.228V44.4265L168.237 52.0704L167.308 53.2875Z" fill="white"/>
<g id="Group_8">
<path id="Path_20" d="M416.436 215.911L416.405 215.926C415.954 215.437 416.015 215.444 416.436 215.911Z" fill="#366BC6"/>
<path id="Path_21" d="M424.749 215.926H416.444C416.436 215.926 416.429 215.918 416.436 215.911L423.456 212.987C423.601 213.11 424.65 214.013 426.112 215.766C425.676 215.873 425.216 215.926 424.749 215.926Z" fill="#366BC6"/>
<path id="Path_22" d="M436.82 249.928C436.82 274.767 424.718 293.589 424.206 294.378L416.727 292.28C416.834 292.112 429.166 272.409 429.166 249.928C429.166 234.856 421.879 223.06 418.182 218.1C421.542 217.886 430.192 218.95 434.983 234.182C436.101 238.645 436.82 243.881 436.82 249.928Z" fill="#366BC6"/>
</g>
<path id="Path_23" d="M391.995 292.28C377.559 297.332 359.487 297.294 345.165 297.837V297.37C345.165 295.617 346.053 294.063 347.408 293.153H347.416C348.227 292.601 349.199 292.28 350.248 292.28H391.995V292.28Z" fill="#366BC6"/>
<path id="Path_24" d="M430.697 297.37V304.29C430.697 307.099 428.416 309.38 425.607 309.38H350.248C347.439 309.38 345.165 307.099 345.165 304.29V302.208C356.586 302.813 389.202 304.022 396.122 298.725C399.421 296.199 401.594 294.01 403.034 292.28H425.607C428.416 292.28 430.697 294.561 430.697 297.37Z" fill="#366BC6"/>
<rect id="Rectangle_35" x="383.052" y="309.378" width="9.75235" height="107.418" fill="#294473"/>
<path id="Path_25" d="M418.358 416.184C418.358 416.788 418.197 417.355 417.907 417.845C417.769 418.097 417.585 418.327 417.386 418.526C416.789 419.123 415.962 419.498 415.044 419.498H360.819C359.595 419.498 358.523 418.832 357.956 417.844C357.665 417.354 357.505 416.788 357.505 416.183C357.505 414.354 358.99 412.869 360.819 412.869H415.044C416.873 412.87 418.358 414.354 418.358 416.184Z" fill="#294473"/>
<path id="Path_26" d="M403.033 292.28C401.594 294.01 399.421 296.199 396.121 298.725C389.202 304.022 356.585 302.813 345.165 302.208V297.838C359.487 297.294 377.559 297.332 391.995 292.281H403.033V292.28Z" fill="#093793"/>
<path id="Path_27" d="M434.983 234.182C430.192 218.95 421.542 217.886 418.182 218.101C417.416 217.075 416.804 216.333 416.444 215.927H424.749C425.216 215.927 425.676 215.873 426.112 215.766C428.737 218.934 432.694 224.92 434.983 234.182Z" fill="#093793"/>
<path id="Path_28" d="M392.804 309.378L385.915 313.588L383.052 355.688V309.378H392.804Z" fill="#11223D"/>
<path id="Path_29" d="M417.906 417.845C417.769 418.097 417.584 418.327 417.386 418.526C416.789 419.123 415.962 419.498 415.043 419.498H360.819C359.594 419.498 358.523 418.832 357.956 417.844C358.523 416.85 359.594 416.183 360.819 416.183H415.043C416.268 416.184 417.34 416.85 417.906 417.845Z" fill="#11223D"/>
<path id="Path_30" d="M223.765 205.271H248.262L242.657 241.125H229.253L223.765 205.271Z" fill="white"/>
<path id="Path_31" d="M224.018 205.271L243.669 211.262L241.373 241.125H242.657L248.008 205.271H224.018Z" fill="#EFE3D8"/>
<path id="Path_32" d="M248.008 205.271H224.018C222.61 205.271 221.469 204.13 221.469 202.722C221.469 201.314 222.61 200.173 224.018 200.173H248.008C249.416 200.173 250.557 201.314 250.557 202.722C250.557 204.13 249.416 205.271 248.008 205.271Z" fill="#DD842A"/>
<path id="Path_33" d="M238.821 386.178C238.821 386.178 239.778 390.579 238.821 394.024C237.864 397.468 234.898 401.2 234.898 401.2C234.898 401.2 182.943 373.261 184.379 371.443C185.814 369.625 223.768 373.166 223.768 373.166C223.768 373.166 232.985 376.419 233.272 376.802C233.559 377.184 238.821 386.178 238.821 386.178Z" fill="#11233F"/>
<path id="Path_34" d="M355.17 341.527C355.17 341.527 360.337 341.973 365.312 344.078C370.287 346.184 370.957 348.193 370.957 348.193C370.957 348.193 344.262 399.67 340.913 398.234C337.565 396.799 346.24 360.791 346.24 360.791L355.17 341.527Z" fill="#11233F"/>
<path id="Path_35" d="M226.619 369.789L223.767 373.166C223.767 373.166 225.021 378.165 230.688 382.16C236.525 386.274 238.821 386.178 238.821 386.178L241.069 383.786L239.395 374.027L230.88 370.678L226.619 369.789Z" fill="#ED8A74"/>
<path id="Path_36" d="M352.084 339.384L355.17 341.527C355.17 341.527 354.276 347.013 351.342 353.136C348.408 359.26 346.239 360.791 346.239 360.791L342.554 358.888L347.643 341.527L352.084 339.384Z" fill="#ED8A74"/>
<path id="Path_37" d="M259.488 229.008C259.603 229.199 258.73 230.722 258.018 231.886C257.544 232.667 257.13 233.302 257.115 233.302C257.107 233.271 253.173 234.871 249.024 234.427C244.883 233.983 245.075 231.939 244.118 231.556C243.161 231.173 240.352 233.026 239.012 234.366C238.392 234.985 236.21 235.193 233.799 235.139C230.99 235.077 227.875 234.656 226.634 234.105C224.338 233.087 235.759 221.223 239.394 220.97C243.03 220.71 248.327 222.562 249.919 223.58C251.519 224.606 255.851 224.728 255.851 224.728C255.851 224.728 259.297 228.686 259.488 229.008Z" fill="#ED8A74"/>
<path id="Path_38" d="M363.398 182.277L350.11 208.211C350.11 208.211 332.589 226.007 307.711 231.557C282.834 237.106 257.322 233.853 257.322 233.853C257.253 233.669 257.184 233.486 257.115 233.302C257 232.965 256.893 232.621 256.801 232.268C255.706 228.296 255.852 223.71 255.852 223.71C255.852 223.71 258.914 221.414 269.439 217.587C279.964 213.76 321.489 206.105 321.489 206.105C331.058 189.648 346.857 167.159 346.857 167.159L363.398 182.277Z" fill="#D3DDEF"/>
<path id="Path_39" d="M340.481 258.928C340.481 258.928 270.97 255.03 263.571 271.36C251.442 298.127 336.033 363.724 336.033 363.724C336.033 363.724 340.626 364.235 347.515 350.967C354.404 337.699 352.873 330.81 352.873 330.81C352.873 330.81 293.934 288.455 302.098 283.862C310.263 279.269 358.742 275.187 358.742 275.187C358.742 275.187 363.59 266.002 363.845 264.981C364.1 263.96 366.396 251.897 366.396 251.897L358.742 248.906L340.481 258.928Z" fill="#11223D"/>
<path id="Path_40" d="M402.635 286.853C400.5 288.437 398.027 289.869 395.165 291.07C394.131 291.507 393.075 291.912 391.995 292.28C377.559 297.332 359.487 297.294 345.165 297.837C343.343 297.898 341.583 297.974 339.899 298.074C331.479 298.564 324.965 299.567 322.255 302.552C314.409 311.163 249.92 386.177 249.92 386.177C249.92 386.177 239.073 385.664 231.419 376.479C223.764 367.294 223.764 362.448 223.764 362.448C223.764 362.448 256.648 324.712 280.829 299.612C280.829 299.612 280.837 299.605 280.844 299.597C291.721 288.307 300.837 279.581 304.397 277.996C312.266 274.498 339.531 265.014 355.927 259.388L355.935 259.38C363.459 256.8 368.695 255.032 368.695 255.032L390.48 253.57L415.426 251.894C410.282 255.331 394.659 264.983 381.447 264.983C380.934 264.983 380.422 264.975 379.916 264.953C379.916 264.953 389.362 268.428 399.818 264.087C407.281 260.995 411.82 258.163 415.847 256.923C416.008 264.272 414.53 278.019 402.635 286.853Z" fill="#11223D"/>
<path id="Shape_2" fill-rule="evenodd" clip-rule="evenodd" d="M411.224 198.535C413.742 208.922 415.763 219.96 416.712 231.098C417.232 237.037 417.432 243 417.24 248.91C417.217 249.507 417.194 250.104 417.171 250.693C417.171 250.693 416.544 251.145 415.426 251.895C411.576 254.467 401.862 260.514 391.682 263.4C391.628 263.415 391.605 263.423 391.605 263.423C388.207 264.38 384.747 264.984 381.448 264.984C380.935 264.984 380.422 264.977 379.917 264.954C373.844 264.707 368.421 263.037 363.284 261.456C360.781 260.685 358.345 259.936 355.935 259.381C350.845 258.21 345.877 257.912 340.626 260.131C340.626 260.131 340.014 255.868 339.914 249.109C339.815 242.756 340.175 234.198 341.905 224.921C342.433 222.096 342.915 218.713 343.351 215C343.436 214.342 343.513 213.676 343.589 213.003C343.995 209.382 344.362 205.501 344.699 201.551V201.544C344.99 198.099 345.25 194.601 345.487 191.179C345.862 185.752 346.176 180.516 346.421 175.962C346.597 172.579 346.742 169.571 346.857 167.159C347.133 160.99 349.123 154.997 352.759 150.006C354.703 147.327 357.214 144.609 360.398 142.412C370.226 135.623 391.146 137.659 399.313 159.987C400.508 163.248 401.763 166.784 403.033 170.543C405.85 178.871 408.744 188.309 411.185 198.351C411.185 198.351 411.201 198.413 411.224 198.535ZM345.165 255.018L354.657 247.44L352.95 215.321C352.95 215.321 366.46 210.889 381.256 194.815C395.463 179.376 391.008 157.262 390.633 155.524C391.2 159.152 391.008 164.166 389.233 171.086C386.048 183.517 374.834 198.994 351.228 209.864C351.281 216.24 351.411 221.889 351.649 225.816C352.682 242.847 352.95 247.44 352.95 247.44L345.165 255.01V255.018Z" fill="#D3DDEF"/>
<path id="Path_41" d="M350.202 138.677C350.202 138.677 350.003 132.622 350.202 132.339C350.393 132.048 354.634 129.691 354.634 129.691L358.583 130.181C355.912 133.319 352.95 136.396 350.202 138.677Z" fill="#ED8A74"/>
<path id="Path_42" d="M368.358 139.312L351.779 151.414C351.641 148.911 351.273 145.911 350.936 143.453L359.28 133.388L358.836 130.211L362.793 130.701L365.12 130.992L368.358 139.312Z" fill="#ED8A74"/>
<path id="Path_43" d="M367.225 116.931C367.264 118.454 364.355 123.054 360.444 127.938C359.915 128.596 359.364 129.262 358.798 129.928C358.729 130.012 358.653 130.097 358.584 130.181C355.912 133.319 352.95 136.396 350.202 138.677C349.33 139.412 348.472 140.055 347.661 140.591C347.347 140.798 347.033 140.997 346.734 141.173C345.05 142.16 343.581 142.62 342.478 142.321C336.163 140.598 333.867 126.177 333.997 125.29C334.127 124.394 330.866 125.734 330.292 124.072C329.718 122.419 334.632 116.992 333.928 114.573C333.224 112.147 333.928 108.128 333.928 108.128L338.62 102.869L353.164 99.4249C353.164 99.4249 363.206 104.201 363.88 104.967C364.546 105.732 367.126 113.103 367.225 116.931Z" fill="#ED8A74"/>
<path id="Path_44" d="M289.341 211.257L287.121 215.122L286.003 217.067C286.003 217.067 282.452 218.452 276.619 219.042C270.779 219.631 268.291 215.391 265.52 213.477C263.093 211.8 257.375 216.118 254.382 215.697C253.946 215.635 253.571 215.482 253.273 215.191C250.876 212.895 263.507 203.426 266.76 203.426C270.013 203.426 274.322 206.006 277.476 207.697C280.63 209.389 286.531 207.697 286.531 207.697L289.341 211.257Z" fill="#ED8A74"/>
<path id="Path_45" d="M352.95 247.44L345.165 255.01V255.018L343.114 257.008L339.914 249.109L337.373 242.847L341.307 213.783L344.239 192.067L346.421 175.962L348.694 159.13L350.21 157.5L351.649 159.13C351.649 159.13 351.45 168.867 351.304 181.19C351.258 185.576 351.22 190.292 351.197 195.014C351.182 200.089 351.182 205.179 351.227 209.864C351.281 216.24 351.411 221.889 351.648 225.816C352.682 242.847 352.95 247.44 352.95 247.44Z" fill="#E23758"/>
<path id="Path_46" d="M351.778 151.411C351.778 151.411 346.487 156.16 347.635 158.169C348.783 160.178 352.066 159.413 352.778 158.361C353.49 157.308 351.778 151.411 351.778 151.411Z" fill="#B72C4E"/>
<path id="Oval_35" d="M340.038 119.917C340.463 119.84 340.548 118.352 340.227 116.595C339.907 114.838 339.303 113.476 338.878 113.554C338.454 113.631 338.369 115.118 338.689 116.876C339.009 118.633 339.613 119.994 340.038 119.917Z" fill="#281C1A"/>
<path id="Path_47" d="M359.28 133.388L350.937 143.453C350.891 143.094 350.837 142.741 350.791 142.412C350.784 142.412 350.784 142.412 350.784 142.412C350.47 140.223 350.202 138.677 350.202 138.677C352.95 136.396 355.912 133.319 358.583 130.181L358.836 130.211L359.28 133.388Z" fill="#E25D47"/>
<path id="Path_48" d="M377.177 109.284C377.177 109.284 381.004 114.06 379.664 117.979C378.371 121.775 372.775 131.114 364.103 134.145C364.088 134.153 364.072 134.16 364.057 134.16C363.781 134.26 363.498 134.352 363.207 134.436C354.022 137.115 352.874 125.35 356.027 125.158C359.189 124.967 360.528 117.795 358.04 114.633C355.553 111.472 351.634 119.8 349.337 120.918C347.041 122.028 354.596 106.497 333.929 108.127C313.261 109.758 312.978 87.8425 312.978 87.8425C314.792 71.8677 334.694 86.8858 334.694 86.8858C334.694 86.8858 342.157 82.1019 348.732 82.4843C355.315 82.8671 358.905 87.4596 358.905 87.4596C358.905 87.4596 375.837 88.5083 379.947 93.5831C384.057 98.6578 377.177 109.284 377.177 109.284Z" fill="#230E0D"/>
<path id="Path_49" d="M287.121 215.122L286.003 217.066C286.003 217.066 282.452 218.452 276.619 219.042C270.779 219.631 268.291 215.391 265.52 213.477C263.093 211.8 257.375 216.118 254.382 215.697C254.604 215.559 262.78 210.4 265.42 211.785C268.099 213.186 273.013 217.587 276.649 217.526C279.888 217.465 285.843 215.543 287.121 215.122Z" fill="#E25D47"/>
<path id="Path_50" d="M257.115 233.302C257.108 233.272 253.173 234.871 249.025 234.427C244.884 233.983 245.075 231.94 244.118 231.557C243.161 231.174 240.352 233.027 239.012 234.366C238.393 234.986 236.211 235.193 233.8 235.139C236.203 233.402 243.398 228.388 244.883 229.452C246.667 230.73 248.328 233.792 251.642 233.409C253.441 233.203 255.393 232.69 256.801 232.269C256.893 232.621 257 232.965 257.115 233.302Z" fill="#E25D47"/>
<path id="Path_51" d="M336.928 134.22C336.928 134.22 338.607 135.203 340.648 133.06C342.689 130.918 341.686 130.18 341.686 130.18L336.928 134.22Z" fill="white"/>
<path id="Path_52" d="M352.347 120.918C352.408 120.631 356.557 114.252 357.227 116.691C357.896 119.131 358.519 123.293 356.031 123.82C353.543 124.346 351.869 123.182 352.347 120.918Z" fill="#E25D47"/>
<path id="Path_53" d="M336.033 111.333C336.46 110.767 337.19 110.491 337.881 110.375C338.593 110.264 339.291 110.307 340.001 110.463C340.71 110.634 341.377 111.007 341.88 111.529C342.379 112.05 342.737 112.7 342.827 113.391C342.053 112.259 341.022 111.483 339.817 111.206C339.218 111.058 338.561 110.982 337.931 110.968C337.298 110.975 336.65 111.03 336.033 111.333Z" fill="#E25D47"/>
<path id="Path_54" d="M381.256 250.18C377.881 251.971 362.311 251.328 354.657 247.44L345.165 255.018V255.01L352.95 247.44C352.95 247.44 352.682 242.847 351.649 225.816C351.411 221.889 351.281 216.24 351.228 209.863C374.834 198.994 386.048 183.517 389.233 171.086C391.008 164.166 391.2 159.152 390.633 155.524C391.008 157.262 395.463 179.375 381.256 194.815C375.944 200.594 370.793 204.865 366.369 207.973C366.261 211.723 366.292 228.755 375.837 226.711C386.553 224.414 395.226 220.013 395.486 223.228C395.739 226.45 382.726 237.679 371.497 239.08C360.275 240.49 384.64 248.397 381.256 250.18Z" fill="#81A2C9"/>
<path id="Path_55" d="M342.325 213.439C342.325 213.439 335.52 218.881 319.193 220.948C302.866 223.006 285.636 218.927 286.532 218.161C286.532 218.161 315.956 221.95 341.307 213.783C341.652 213.668 341.989 213.561 342.325 213.439Z" fill="#81A2C9"/>
<path id="Path_56" d="M300.782 333.021L321.715 306.834L319.813 305.292L298.038 330.347L300.782 333.021Z" fill="#09121E"/>
<path id="Path_57" d="M304.625 328.214L319.813 350.326L300.782 333.021L304.625 328.214Z" fill="#09121E"/>
<path id="Path_58" d="M355.935 259.381L355.927 259.389C339.532 265.015 312.266 274.499 304.397 277.997C300.838 279.581 291.721 288.307 280.844 299.598C281.35 298.963 297.677 278.724 300.785 276.336C303.93 273.909 355.935 259.381 355.935 259.381Z" fill="#09121E"/>
<path id="Path_59" d="M415.847 256.924C411.821 258.164 407.282 260.996 399.819 264.089C389.363 268.429 379.917 264.954 379.917 264.954C380.422 264.977 380.935 264.984 381.448 264.984C394.66 264.984 410.282 255.332 415.426 251.895C415.426 251.895 415.786 253.847 415.847 256.924Z" fill="#09121E"/>
<path id="Path_60" d="M349.107 186.135C349.107 186.135 349.107 186.143 349.099 186.15C349.099 186.142 349.107 186.142 349.099 186.135H349.107Z" fill="#D3DDEF"/>
<path id="Path_61" d="M350.202 159.417L350.114 245.144L343.114 257.008L352.95 247.44L351.649 159.13L350.202 159.417Z" fill="#B72C4E"/>
<path id="Path_62" d="M389.233 171.086C386.048 183.517 374.834 198.994 351.228 209.864C349.903 210.476 348.526 211.073 347.117 211.655C345.954 212.137 344.775 212.589 343.589 213.002C343.482 213.048 343.374 213.087 343.267 213.117C342.953 213.224 342.64 213.339 342.326 213.439C341.989 213.561 341.652 213.668 341.308 213.783C315.956 221.951 286.532 218.162 286.532 218.162C284.205 214.427 286.532 207.698 286.532 207.698C286.532 207.698 293.169 203.488 306.312 198.773C318.084 194.54 324.636 194.716 334.519 194.065C334.519 194.065 334.519 194.065 334.526 194.065C335.659 193.989 336.838 193.905 338.078 193.798C340.711 193.576 342.678 193.002 344.24 192.068C344.684 191.808 345.097 191.509 345.488 191.18C346.957 189.947 348.044 188.286 349.1 186.151C349.1 186.143 349.108 186.143 349.1 186.135H349.108C349.82 184.704 350.517 183.058 351.305 181.19C352.889 177.455 354.834 172.831 357.98 167.259C373.924 138.983 384.832 146.401 384.832 146.401C384.832 146.401 389.394 147.809 390.611 155.418C390.611 155.418 390.619 155.456 390.634 155.525C391.199 159.152 391.008 164.166 389.233 171.086Z" fill="#D3DDEF"/>
<path id="Path_63" d="M349.1 186.15C349.046 186.456 348.013 191.454 345.694 194.065C343.313 196.752 334.878 194.065 334.526 194.065C335.659 193.989 336.837 193.904 338.077 193.797C340.711 193.575 342.678 193.001 344.24 192.067C344.684 191.807 345.097 191.509 345.487 191.179C346.956 189.947 348.043 188.286 349.1 186.15Z" fill="#81A2C9"/>
<path id="Path_64" d="M377.177 109.284C377.177 109.284 381.004 114.06 379.664 117.979C378.371 121.775 372.775 131.114 364.103 134.145C370.479 131.519 376.225 122.712 377.864 117.801C379.461 113.014 374.689 108.954 374.689 108.954C374.689 108.954 380.414 100.166 378.269 95.8098C376.008 91.2197 357.466 91.4787 357.083 91.4787C356.7 91.4787 356.448 88.547 349.559 86.1969C342.67 83.8395 335.015 89.8175 335.015 89.8175C335.015 89.8175 325.636 84.2067 321.742 83.4414C314.299 81.9781 312.978 87.8429 312.978 87.8429C314.792 71.8682 334.694 86.8862 334.694 86.8862C334.694 86.8862 342.157 82.1023 348.732 82.4847C355.315 82.8676 358.905 87.4601 358.905 87.4601C358.905 87.4601 375.837 88.5088 379.947 93.5835C384.057 98.6583 377.177 109.284 377.177 109.284Z" fill="#AA6363"/>
<rect id="Rectangle_36" x="85.348" y="388.892" width="195.9" height="6.43131" fill="#294473"/>
<rect id="Rectangle_37" x="130.956" y="208.689" width="2.48767" height="12.9169" fill="#093793"/>
<path id="Path_65" d="M266.76 243.398V251.482C266.76 252.737 265.742 253.755 264.487 253.755H102.931C102.686 253.755 102.448 253.717 102.227 253.648C101.316 253.342 100.657 252.492 100.657 251.482V243.398C100.657 242.143 101.675 241.125 102.931 241.125H264.487C265.275 241.125 265.972 241.523 266.378 242.136C266.622 242.495 266.76 242.931 266.76 243.398Z" fill="#E23758"/>
<path id="Path_66" d="M133.251 257.391H116.271C115.253 257.391 114.427 256.565 114.427 255.547V253.755H135.094V255.547C135.094 256.565 134.269 257.391 133.251 257.391Z" fill="#B72C4E"/>
<path id="Path_67" d="M127.325 257.391L126.277 260.889L78.3363 421.006H71.5774L120.153 260.889L121.217 257.391H127.325Z" fill="#294473"/>
<path id="Path_68" d="M234.167 257.391H251.146C252.165 257.391 252.99 256.565 252.99 255.547V253.755H232.323V255.547C232.323 256.565 233.149 257.391 234.167 257.391Z" fill="#B72C4E"/>
<path id="Path_69" d="M295.84 421.006H289.081L241.14 260.889L240.091 257.391H246.2L247.264 260.889L295.84 421.006Z" fill="#294473"/>
<path id="Path_70" d="M162.467 225.9V231.855C162.467 232.429 162 232.896 161.426 232.896H103.612C103.037 232.896 102.571 232.429 102.571 231.855V225.9C102.571 225.326 103.038 224.859 103.612 224.859H161.426C162.001 224.859 162.467 225.326 162.467 225.9Z" fill="#E23758"/>
<rect id="Rectangle_38" x="105.888" y="232.896" width="8.22873" height="8.22873" fill="#B72C4E"/>
<path id="Path_71" d="M136.506 211.261H134.078C130.35 211.261 127.328 208.239 127.328 204.511V111.752C127.328 108.024 130.351 105.002 134.078 105.002H136.506V211.261Z" fill="#366BC6"/>
<rect id="Rectangle_39" x="114.116" y="221.606" width="35.6014" height="3.25339" fill="#11223D"/>
<path id="Path_72" d="M127.328 199.747H126.264C122.479 199.747 119.411 196.679 119.411 192.894V122.105C119.411 118.32 122.479 115.252 126.264 115.252H127.328V199.747Z" fill="#093793"/>
<rect id="Rectangle_40" x="207.141" y="237.042" width="55.24" height="4.08261" fill="#11223D"/>
<rect id="Rectangle_41" x="184.108" y="190.71" width="55.2381" height="4.08247" transform="rotate(61.2743 184.108 190.71)" fill="#11223D"/>
<path id="Path_73" d="M244.562 237.042H210.949C210.949 236.302 211.548 235.703 212.288 235.703H243.223C243.962 235.703 244.562 236.303 244.562 237.042Z" fill="#E23758"/>
<path id="Path_74" d="M266.377 242.136L102.226 253.648C101.315 253.342 100.657 252.492 100.657 251.482V243.399C100.657 242.143 101.675 241.125 102.93 241.125H264.486C265.275 241.125 265.972 241.523 266.377 242.136Z" fill="#E56180"/>
<path id="Path_75" d="M162.467 229.375V231.855C162.467 232.43 162 232.896 161.426 232.896H103.612C103.037 232.896 102.571 232.429 102.571 231.855V229.375C102.571 228.801 103.038 228.334 103.612 228.334H161.426C162.001 228.334 162.467 228.801 162.467 229.375Z" fill="#B72C4E"/>
<path id="Path_76" d="M86.9921 392.107H280.425L281.249 395.322H86.0294L86.9921 392.107Z" fill="#1F3556"/>
<path id="Path_77" d="M121.217 257.391H127.325L126.277 260.889H120.153L121.217 257.391Z" fill="#1F3556"/>
<path id="Path_78" d="M247.302 260.889H241.14L240.091 257.391H246.2L247.302 260.889Z" fill="#1F3556"/>
<rect id="Rectangle_42" x="352.299" y="364.554" width="30.7526" height="7.65444" fill="#11233F"/>
<path id="Path_79" d="M430.697 155.601V209.971C430.697 210.706 430.567 211.402 430.33 212.053C429.641 213.897 428.056 215.313 426.112 215.765C425.676 215.872 425.217 215.926 424.75 215.926H414.447C413.452 215.926 412.51 215.681 411.683 215.245C411.683 215.237 411.675 215.237 411.668 215.237C410.971 214.87 410.359 214.364 409.869 213.767C409.762 213.652 409.678 213.537 409.617 213.438C408.913 212.466 408.499 211.264 408.499 209.971V155.601C408.499 152.317 411.163 149.653 414.447 149.653H424.75C428.033 149.654 430.697 152.317 430.697 155.601Z" fill="#093793"/>
<path id="Path_80" d="M427.367 157.216V209.19C427.367 210.667 426.372 211.915 425.017 212.29C424.742 212.375 424.443 212.421 424.137 212.421H415.051C413.267 212.421 411.82 210.974 411.82 209.19V157.216C411.82 156.734 411.928 156.275 412.119 155.861C412.632 154.759 413.749 153.994 415.051 153.994H424.137C425.92 153.994 427.367 155.432 427.367 157.216Z" fill="#366BC6"/>
<path id="Path_81" d="M427.367 157.216V209.19C427.367 210.667 426.372 211.915 425.017 212.29C421.373 195.703 415.663 170.068 412.119 155.861C412.632 154.759 413.749 153.994 415.051 153.994H424.137C425.92 153.994 427.367 155.432 427.367 157.216Z" fill="#205DB7"/>
</g>
</svg>
